com/adsicbi/jardinapp/jpa/entities/Calificaciones.class
com/adsicbi/jardinapp/jpa/sessions/JardinesInfantilesFacade.class
com/adsicbi/jardinapp/jpa/entities/JardinesinfantilesAU.class
com/adsicbi/jardinapp/jpa/entities/Encuestas_.class
com/adsicbi/jardinapp/jpa/entities/Usuarios_.class
com/adsicbi/jardinapp/jpa/entities/Comentarios_.class
com/adsicbi/jardinapp/jpa/sessions/AnunciosFacade.class
com/adsicbi/jardinapp/jpa/entities/RespuestasInquietudes.class
com/adsicbi/jardinapp/jpa/entities/HijosAu.class
com/adsicbi/jardinapp/jpa/sessions/TiposJardinesFacade.class
com/adsicbi/jardinapp/jpa/entities/Servicios_.class
com/adsicbi/jardinapp/jpa/entities/CiudadesPK_.class
com/adsicbi/jardinapp/jpa/sessions/HijosFacade.class
com/adsicbi/jardinapp/jpa/entities/Pedidos.class
com/adsicbi/jardinapp/rest/services/ConfigEmailSmtp.class
com/adsicbi/jardinapp/jpa/entities/TiposDocumentos_.class
com/adsicbi/jardinapp/jpa/sessions/ComentariosFacade.class
com/adsicbi/jardinapp/jpa/entities/Empresas.class
com/adsicbi/jardinapp/rest/auth/SecurityFilter$User.class
com/adsicbi/jardinapp/jpa/sessions/RespuestasInquietudesFacade.class
com/adsicbi/jardinapp/jpa/entities/Roles.class
com/adsicbi/jardinapp/rest/services/HijosRest.class
com/adsicbi/jardinapp/rest/services/DepartamentosRest.class
com/adsicbi/jardinapp/jpa/sessions/DetallesPedidosFacade.class
com/adsicbi/jardinapp/jpa/entities/HijosAu_.class
com/adsicbi/jardinapp/jpa/sessions/InquietudesFacade.class
com/adsicbi/jardinapp/jpa/sessions/AbstractFacade.class
com/adsicbi/jardinapp/jpa/entities/Ciudades_.class
com/adsicbi/jardinapp/jpa/entities/JardinesInfantiles_.class
com/adsicbi/jardinapp/rest/services/RespuestasInquietudesRest.class
com/adsicbi/jardinapp/rest/services/PaisesRest.class
com/adsicbi/jardinapp/jpa/entities/Inquietudes_.class
com/adsicbi/jardinapp/rest/services/UsuariosRest.class
com/adsicbi/jardinapp/jpa/entities/Servicios.class
com/adsicbi/jardinapp/rest/auth/DigestUtil.class
com/adsicbi/jardinapp/jpa/entities/Anuncios_.class
com/adsicbi/jardinapp/jpa/entities/Hijos.class
com/adsicbi/jardinapp/rest/services/UsuariosAURest.class
com/adsicbi/jardinapp/rest/services/RolesRest.class
com/adsicbi/jardinapp/rest/services/DetallesPedidosRest.class
com/adsicbi/jardinapp/jpa/entities/Encuestas.class
com/adsicbi/jardinapp/jpa/entities/MiEmpresa.class
com/adsicbi/jardinapp/jpa/entities/Comentarios.class
com/adsicbi/jardinapp/rest/services/CalificacionesRest.class
com/adsicbi/jardinapp/jpa/sessions/CalificacionesFacade.class
com/adsicbi/jardinapp/jpa/entities/UsuariosAU_.class
com/adsicbi/jardinapp/jpa/entities/Anuncios.class
com/adsicbi/jardinapp/rest/services/PedidosRest.class
com/adsicbi/jardinapp/jpa/sessions/MiEmpresaFacade.class
com/adsicbi/jardinapp/jpa/entities/RespuestasInquietudes_.class
com/adsicbi/jardinapp/jpa/entities/JardinesInfantilesHasUsuarios.class
com/adsicbi/jardinapp/jpa/entities/Hijos_.class
com/adsicbi/jardinapp/jpa/sessions/HijosAuFacade.class
com/adsicbi/jardinapp/jpa/entities/MiEmpresa_.class
com/adsicbi/jardinapp/jpa/entities/TiposDocumentos.class
com/adsicbi/jardinapp/jpa/sessions/EmpresasFacade.class
com/adsicbi/jardinapp/rest/services/CiudadesRest.class
com/adsicbi/jardinapp/jpa/entities/TiposJardines_.class
com/adsicbi/jardinapp/jpa/entities/Empresas_.class
com/adsicbi/jardinapp/jpa/entities/CiudadesPK.class
com/adsicbi/jardinapp/jpa/entities/DetallesPedidos_.class
com/adsicbi/jardinapp/jpa/sessions/UsuariosAUFacade.class
com/adsicbi/jardinapp/rest/services/AbstractFacade.class
com/adsicbi/jardinapp/rest/services/InquietudesRest.class
com/adsicbi/jardinapp/jpa/entities/Paises.class
com/adsicbi/jardinapp/jpa/entities/DetallesPedidos.class
com/adsicbi/jardinapp/rest/services/HijosAuRest.class
com/adsicbi/jardinapp/rest/services/Contacto.class
com/adsicbi/jardinapp/jpa/entities/Paises_.class
com/adsicbi/jardinapp/jpa/entities/JardinesInfantiles.class
com/adsicbi/jardinapp/jpa/sessions/ServiciosFacade.class
com/adsicbi/jardinapp/jpa/sessions/JardinesInfantilesHasUsuariosFacade.class
com/adsicbi/jardinapp/jpa/sessions/PaisesFacade.class
com/adsicbi/jardinapp/rest/services/JardinesInfantilesAURest.class
com/adsicbi/jardinapp/jpa/entities/Ciudades.class
com/adsicbi/jardinapp/jpa/sessions/RolesFacade.class
com/adsicbi/jardinapp/jpa/entities/Departamentos_.class
com/adsicbi/jardinapp/rest/services/TiposJardinesRest.class
com/adsicbi/jardinapp/rest/auth/SecurityFilter.class
com/adsicbi/jardinapp/jpa/entities/JardinesInfantilesHasUsuarios_.class
com/adsicbi/jardinapp/rest/services/AnunciosRest.class
com/adsicbi/jardinapp/jpa/sessions/JardinesinfantilesAUFacade.class
com/adsicbi/jardinapp/rest/services/JardinesInfantilesRest.class
com/adsicbi/jardinapp/rest/services/ServiciosRest.class
com/adsicbi/jardinapp/jpa/sessions/CiudadesFacade.class
com/adsicbi/jardinapp/rest/auth/AuthUtils.class
com/adsicbi/jardinapp/jpa/entities/Pedidos_.class
com/adsicbi/jardinapp/jpa/sessions/TiposDocumentosFacade.class
com/adsicbi/jardinapp/jpa/entities/Departamentos.class
com/adsicbi/jardinapp/rest/auth/AuthREST.class
com/adsicbi/jardinapp/rest/services/ComentariosRest.class
com/adsicbi/jardinapp/jpa/sessions/PedidosFacade.class
com/adsicbi/jardinapp/jpa/entities/DetallesPedidosPK_.class
com/adsicbi/jardinapp/jpa/entities/Calificaciones_.class
com/adsicbi/jardinapp/jpa/entities/UsuariosAU.class
com/adsicbi/jardinapp/jpa/entities/Roles_.class
com/adsicbi/jardinapp/rest/services/EmpresasRest.class
com/adsicbi/jardinapp/jpa/entities/JardinesinfantilesAU_.class
com/adsicbi/jardinapp/jpa/sessions/UsuariosFacade.class
com/adsicbi/jardinapp/jpa/entities/Inquietudes.class
com/adsicbi/jardinapp/rest/services/ApplicationConfig.class
com/adsicbi/jardinapp/jpa/entities/DetallesPedidosPK.class
com/adsicbi/jardinapp/rest/auth/SecurityFilter$Authorizer.class
com/adsicbi/jardinapp/jpa/entities/TiposJardines.class
com/adsicbi/jardinapp/rest/auth/Token.class
com/adsicbi/jardinapp/rest/services/TiposDocumentosRest.class
com/adsicbi/jardinapp/jpa/entities/Usuarios.class
com/adsicbi/jardinapp/jpa/sessions/DepartamentosFacade.class
