/home/bratc/JARDINAPP/jardinapp-backend3/jardinapp-backend/src/main/java/com/adsicbi/jardinapp/jpa/entities/Hijos.java
/home/bratc/JARDINAPP/jardinapp-backend3/jardinapp-backend/src/main/java/com/adsicbi/jardinapp/rest/services/InquietudesRest.java
/home/bratc/JARDINAPP/jardinapp-backend3/jardinapp-backend/src/main/java/com/adsicbi/jardinapp/jpa/sessions/TiposDocumentosFacade.java
/home/bratc/JARDINAPP/jardinapp-backend3/jardinapp-backend/src/main/java/com/adsicbi/jardinapp/jpa/entities/Usuarios.java
/home/bratc/JARDINAPP/jardinapp-backend3/jardinapp-backend/src/main/java/com/adsicbi/jardinapp/jpa/entities/JardinesinfantilesAU.java
/home/bratc/JARDINAPP/jardinapp-backend3/jardinapp-backend/src/main/java/com/adsicbi/jardinapp/jpa/sessions/AbstractFacade.java
/home/bratc/JARDINAPP/jardinapp-backend3/jardinapp-backend/src/main/java/com/adsicbi/jardinapp/jpa/entities/Anuncios.java
/home/bratc/JARDINAPP/jardinapp-backend3/jardinapp-backend/src/main/java/com/adsicbi/jardinapp/rest/services/AbstractFacade.java
/home/bratc/JARDINAPP/jardinapp-backend3/jardinapp-backend/src/main/java/com/adsicbi/jardinapp/jpa/sessions/JardinesInfantilesHasUsuariosFacade.java
/home/bratc/JARDINAPP/jardinapp-backend3/jardinapp-backend/src/main/java/com/adsicbi/jardinapp/jpa/entities/Calificaciones.java
/home/bratc/JARDINAPP/jardinapp-backend3/jardinapp-backend/src/main/java/com/adsicbi/jardinapp/rest/services/AnunciosRest.java
/home/bratc/JARDINAPP/jardinapp-backend3/jardinapp-backend/src/main/java/com/adsicbi/jardinapp/jpa/entities/Inquietudes.java
/home/bratc/JARDINAPP/jardinapp-backend3/jardinapp-backend/src/main/java/com/adsicbi/jardinapp/jpa/entities/HijosAu.java
/home/bratc/JARDINAPP/jardinapp-backend3/jardinapp-backend/src/main/java/com/adsicbi/jardinapp/rest/services/HijosRest.java
/home/bratc/JARDINAPP/jardinapp-backend3/jardinapp-backend/src/main/java/com/adsicbi/jardinapp/jpa/entities/TiposJardines.java
/home/bratc/JARDINAPP/jardinapp-backend3/jardinapp-backend/src/main/java/com/adsicbi/jardinapp/jpa/sessions/DepartamentosFacade.java
/home/bratc/JARDINAPP/jardinapp-backend3/jardinapp-backend/src/main/java/com/adsicbi/jardinapp/jpa/sessions/CalificacionesFacade.java
/home/bratc/JARDINAPP/jardinapp-backend3/jardinapp-backend/src/main/java/com/adsicbi/jardinapp/rest/services/CiudadesRest.java
/home/bratc/JARDINAPP/jardinapp-backend3/jardinapp-backend/src/main/java/com/adsicbi/jardinapp/jpa/entities/Servicios.java
/home/bratc/JARDINAPP/jardinapp-backend3/jardinapp-backend/src/main/java/com/adsicbi/jardinapp/jpa/entities/DetallesPedidosPK.java
/home/bratc/JARDINAPP/jardinapp-backend3/jardinapp-backend/src/main/java/com/adsicbi/jardinapp/jpa/entities/Comentarios.java
/home/bratc/JARDINAPP/jardinapp-backend3/jardinapp-backend/src/main/java/com/adsicbi/jardinapp/rest/auth/Token.java
/home/bratc/JARDINAPP/jardinapp-backend3/jardinapp-backend/src/main/java/com/adsicbi/jardinapp/jpa/sessions/ServiciosFacade.java
/home/bratc/JARDINAPP/jardinapp-backend3/jardinapp-backend/src/main/java/com/adsicbi/jardinapp/jpa/entities/MiEmpresa.java
/home/bratc/JARDINAPP/jardinapp-backend3/jardinapp-backend/src/main/java/com/adsicbi/jardinapp/jpa/sessions/HijosAuFacade.java
/home/bratc/JARDINAPP/jardinapp-backend3/jardinapp-backend/src/main/java/com/adsicbi/jardinapp/jpa/sessions/JardinesInfantilesFacade.java
/home/bratc/JARDINAPP/jardinapp-backend3/jardinapp-backend/src/main/java/com/adsicbi/jardinapp/jpa/sessions/InquietudesFacade.java
/home/bratc/JARDINAPP/jardinapp-backend3/jardinapp-backend/src/main/java/com/adsicbi/jardinapp/jpa/entities/CiudadesPK.java
/home/bratc/JARDINAPP/jardinapp-backend3/jardinapp-backend/src/main/java/com/adsicbi/jardinapp/jpa/sessions/AnunciosFacade.java
/home/bratc/JARDINAPP/jardinapp-backend3/jardinapp-backend/src/main/java/com/adsicbi/jardinapp/rest/services/JardinesInfantilesRest.java
/home/bratc/JARDINAPP/jardinapp-backend3/jardinapp-backend/src/main/java/com/adsicbi/jardinapp/jpa/entities/TiposDocumentos.java
/home/bratc/JARDINAPP/jardinapp-backend3/jardinapp-backend/src/main/java/com/adsicbi/jardinapp/jpa/entities/Pedidos.java
/home/bratc/JARDINAPP/jardinapp-backend3/jardinapp-backend/src/main/java/com/adsicbi/jardinapp/jpa/entities/JardinesInfantiles.java
/home/bratc/JARDINAPP/jardinapp-backend3/jardinapp-backend/src/main/java/com/adsicbi/jardinapp/rest/auth/SecurityFilter.java
/home/bratc/JARDINAPP/jardinapp-backend3/jardinapp-backend/src/main/java/com/adsicbi/jardinapp/jpa/sessions/JardinesinfantilesAUFacade.java
/home/bratc/JARDINAPP/jardinapp-backend3/jardinapp-backend/src/main/java/com/adsicbi/jardinapp/rest/auth/DigestUtil.java
/home/bratc/JARDINAPP/jardinapp-backend3/jardinapp-backend/src/main/java/com/adsicbi/jardinapp/rest/services/ConfigEmailSmtp.java
/home/bratc/JARDINAPP/jardinapp-backend3/jardinapp-backend/src/main/java/com/adsicbi/jardinapp/jpa/entities/DetallesPedidos.java
/home/bratc/JARDINAPP/jardinapp-backend3/jardinapp-backend/src/main/java/com/adsicbi/jardinapp/jpa/sessions/RespuestasInquietudesFacade.java
/home/bratc/JARDINAPP/jardinapp-backend3/jardinapp-backend/src/main/java/com/adsicbi/jardinapp/jpa/entities/UsuariosAU.java
/home/bratc/JARDINAPP/jardinapp-backend3/jardinapp-backend/src/main/java/com/adsicbi/jardinapp/jpa/sessions/CiudadesFacade.java
/home/bratc/JARDINAPP/jardinapp-backend3/jardinapp-backend/src/main/java/com/adsicbi/jardinapp/jpa/sessions/PaisesFacade.java
/home/bratc/JARDINAPP/jardinapp-backend3/jardinapp-backend/src/main/java/com/adsicbi/jardinapp/rest/services/EmpresasRest.java
/home/bratc/JARDINAPP/jardinapp-backend3/jardinapp-backend/src/main/java/com/adsicbi/jardinapp/jpa/sessions/ComentariosFacade.java
/home/bratc/JARDINAPP/jardinapp-backend3/jardinapp-backend/src/main/java/com/adsicbi/jardinapp/rest/services/HijosAuRest.java
/home/bratc/JARDINAPP/jardinapp-backend3/jardinapp-backend/src/main/java/com/adsicbi/jardinapp/rest/services/RespuestasInquietudesRest.java
/home/bratc/JARDINAPP/jardinapp-backend3/jardinapp-backend/src/main/java/com/adsicbi/jardinapp/rest/services/PaisesRest.java
/home/bratc/JARDINAPP/jardinapp-backend3/jardinapp-backend/src/main/java/com/adsicbi/jardinapp/jpa/entities/JardinesInfantilesHasUsuarios.java
/home/bratc/JARDINAPP/jardinapp-backend3/jardinapp-backend/src/main/java/com/adsicbi/jardinapp/jpa/entities/Empresas.java
/home/bratc/JARDINAPP/jardinapp-backend3/jardinapp-backend/src/main/java/com/adsicbi/jardinapp/jpa/entities/Departamentos.java
/home/bratc/JARDINAPP/jardinapp-backend3/jardinapp-backend/src/main/java/com/adsicbi/jardinapp/jpa/sessions/RolesFacade.java
/home/bratc/JARDINAPP/jardinapp-backend3/jardinapp-backend/src/main/java/com/adsicbi/jardinapp/jpa/entities/Paises.java
/home/bratc/JARDINAPP/jardinapp-backend3/jardinapp-backend/src/main/java/com/adsicbi/jardinapp/jpa/entities/Encuestas.java
/home/bratc/JARDINAPP/jardinapp-backend3/jardinapp-backend/src/main/java/com/adsicbi/jardinapp/jpa/sessions/UsuariosAUFacade.java
/home/bratc/JARDINAPP/jardinapp-backend3/jardinapp-backend/src/main/java/com/adsicbi/jardinapp/jpa/entities/Roles.java
/home/bratc/JARDINAPP/jardinapp-backend3/jardinapp-backend/src/main/java/com/adsicbi/jardinapp/rest/services/ComentariosRest.java
/home/bratc/JARDINAPP/jardinapp-backend3/jardinapp-backend/src/main/java/com/adsicbi/jardinapp/jpa/entities/Ciudades.java
/home/bratc/JARDINAPP/jardinapp-backend3/jardinapp-backend/src/main/java/com/adsicbi/jardinapp/rest/services/TiposDocumentosRest.java
/home/bratc/JARDINAPP/jardinapp-backend3/jardinapp-backend/src/main/java/com/adsicbi/jardinapp/rest/services/UsuariosRest.java
/home/bratc/JARDINAPP/jardinapp-backend3/jardinapp-backend/src/main/java/com/adsicbi/jardinapp/rest/auth/AuthUtils.java
/home/bratc/JARDINAPP/jardinapp-backend3/jardinapp-backend/src/main/java/com/adsicbi/jardinapp/rest/services/TiposJardinesRest.java
/home/bratc/JARDINAPP/jardinapp-backend3/jardinapp-backend/src/main/java/com/adsicbi/jardinapp/rest/services/ServiciosRest.java
/home/bratc/JARDINAPP/jardinapp-backend3/jardinapp-backend/src/main/java/com/adsicbi/jardinapp/rest/services/CalificacionesRest.java
/home/bratc/JARDINAPP/jardinapp-backend3/jardinapp-backend/src/main/java/com/adsicbi/jardinapp/jpa/sessions/MiEmpresaFacade.java
/home/bratc/JARDINAPP/jardinapp-backend3/jardinapp-backend/src/main/java/com/adsicbi/jardinapp/rest/services/JardinesInfantilesAURest.java
/home/bratc/JARDINAPP/jardinapp-backend3/jardinapp-backend/src/main/java/com/adsicbi/jardinapp/jpa/sessions/DetallesPedidosFacade.java
/home/bratc/JARDINAPP/jardinapp-backend3/jardinapp-backend/src/main/java/com/adsicbi/jardinapp/rest/services/PedidosRest.java
/home/bratc/JARDINAPP/jardinapp-backend3/jardinapp-backend/src/main/java/com/adsicbi/jardinapp/jpa/sessions/TiposJardinesFacade.java
/home/bratc/JARDINAPP/jardinapp-backend3/jardinapp-backend/src/main/java/com/adsicbi/jardinapp/jpa/sessions/UsuariosFacade.java
/home/bratc/JARDINAPP/jardinapp-backend3/jardinapp-backend/src/main/java/com/adsicbi/jardinapp/jpa/sessions/EmpresasFacade.java
/home/bratc/JARDINAPP/jardinapp-backend3/jardinapp-backend/src/main/java/com/adsicbi/jardinapp/rest/services/DetallesPedidosRest.java
/home/bratc/JARDINAPP/jardinapp-backend3/jardinapp-backend/src/main/java/com/adsicbi/jardinapp/rest/auth/AuthREST.java
/home/bratc/JARDINAPP/jardinapp-backend3/jardinapp-backend/src/main/java/com/adsicbi/jardinapp/rest/services/RolesRest.java
/home/bratc/JARDINAPP/jardinapp-backend3/jardinapp-backend/src/main/java/com/adsicbi/jardinapp/rest/services/ApplicationConfig.java
/home/bratc/JARDINAPP/jardinapp-backend3/jardinapp-backend/src/main/java/com/adsicbi/jardinapp/jpa/sessions/PedidosFacade.java
/home/bratc/JARDINAPP/jardinapp-backend3/jardinapp-backend/src/main/java/com/adsicbi/jardinapp/jpa/sessions/HijosFacade.java
/home/bratc/JARDINAPP/jardinapp-backend3/jardinapp-backend/src/main/java/com/adsicbi/jardinapp/rest/services/UsuariosAURest.java
/home/bratc/JARDINAPP/jardinapp-backend3/jardinapp-backend/src/main/java/com/adsicbi/jardinapp/rest/services/DepartamentosRest.java
/home/bratc/JARDINAPP/jardinapp-backend3/jardinapp-backend/src/main/java/com/adsicbi/jardinapp/jpa/entities/RespuestasInquietudes.java
